# compile vhdl design source files
vhdl xil_defaultlib  \
"../../../../VHDL_prakt.srcs/sources_1/new/counter.vhd" \
"../../../../VHDL_prakt.srcs/sources_1/new/hec_gen.vhd" \
"../../../../../versuche/v2/my_comps.vhd" \
"../../../../../versuche/v5/head_gen.vhd" \
"../../../../VHDL_prakt.srcs/sources_1/new/crc_gen.vhd" \
"../../../../VHDL_prakt.srcs/sources_1/new/sn_cnt.vhd" \
"../../../../VHDL_prakt.srcs/sources_1/new/aal1_gen.vhd" \
"../../../../../versuche/v1/dff.vhd" \
"../../../../../versuche/v1/shift4.vhd" \
"../../../../VHDL_prakt.srcs/sources_1/new/hec_gen_tb.vhd" \
"../../../../../versuche/v6/ingress.vhd" \
"../../../../../versuche/v6/sp_conv.vhd" \
"../../../../VHDL_prakt.srcs/sources_1/new/ctl_in.vhd" \
"../../../../../versuche/v5/head_gen_tb.vhd" \
"../../../../../versuche/v4/counter_tb.vhd" \
"C:/Users/SDV/Shared/Praktikum_VHDL/versuche/v3/aal1_gen_tb.vhd" \
"../../../../../versuche/v2/stim_gen.vhd" \
"../../../../VHDL_prakt.srcs/sim_1/new/sn_cnt_tb.vhd" \
"../../../../../versuche/v1/shift4_tb.vhd" \
"../../../../../versuche/v6/ctl_in_tb.vhd" \
"../../../../../versuche/v6/ingress_tb.vhd" \

# Do not sort compile order
nosort
